{
  "TableName": "notifications_details",
  "AttributeDefinitions": [
    {
      "AttributeName": "routingKey",
      "AttributeType": "S"
    }
  ],
  "KeySchema": [
    {
      "AttributeName": "routingKey",
      "KeyType": "HASH"
    }
  ],
  "ProvisionedThroughput": {
    "ReadCapacityUnits": 10,
    "WriteCapacityUnits": 5
  }
}
